simulation/qsim/calculadora.msim.vcd
$comment
	File created using the following command:
		vcd file calculadora.msim.vcd -direction
$end
$date
	Tue May 21 20:45:44 2024
$end
$version
	ModelSim Version 10.5b
$end
$timescale
	1ps
$end

$scope module somador1Bit_vlg_vec_tst $end
$var reg 1 ! A $end
$var reg 1 " B $end
$var reg 1 # Cin $end
$var wire 1 $ Cout $end
$var wire 1 % R $end

$scope module i1 $end
$var wire 1 & gnd $end
$var wire 1 ' vcc $end
$var wire 1 ( unknown $end
$var tri1 1 ) devclrn $end
$var tri1 1 * devpor $end
$var tri1 1 + devoe $end
$var wire 1 , ~QUARTUS_CREATED_GND~I_combout $end
$var wire 1 - A~input_o $end
$var wire 1 . Cin~input_o $end
$var wire 1 / B~input_o $end
$var wire 1 0 inst~combout $end
$var wire 1 1 inst7~0_combout $end
$upscope $end
$upscope $end
$enddefinitions $end
#0
$dumpvars
0!
0"
0#
0$
0%
0&
1'
x(
1)
1*
1+
0,
0-
0.
0/
00
01
$end
#500000
1!
1-
10
1%
#1000000
1"
0!
1/
0-
#1500000
1!
1-
11
00
0%
1$
#2000000
1#
0"
0!
1.
0/
0-
01
10
1%
0$
#2500000
1!
1-
11
00
0%
1$
#3000000
1"
0!
1/
0-
#3500000
1!
1-
10
1%
#4000000
0#
0"
0!
0.
0/
0-
01
00
0%
0$
#4500000
1!
1-
10
1%
#5000000
1"
0!
1/
0-
#5500000
1!
1-
11
00
0%
1$
#6000000
1#
0"
0!
1.
0/
0-
01
10
1%
0$
#6500000
1!
1-
11
00
0%
1$
#7000000
1"
0!
1/
0-
#7500000
1!
1-
10
1%
